beamsize/ALL0001/F0001CH1.CSV

Record Length,2.500000e+03,,   0.067500000000,   0.19800,
Sample Interval,2.000000e-06,,   0.067502000000,   0.19800,
Trigger Point,-3.375000000000e+04,,   0.067504000000,   0.20000,
,,,   0.067506000000,   0.20000,
,,,   0.067508000000,   0.20000,
,,,   0.067510000000,   0.20200,
Source,CH1,,   0.067512000000,   0.20200,
Vertical Units,V,,   0.067514000000,   0.20200,
Vertical Scale,5.000000e-02,,   0.067516000000,   0.20200,
Vertical Offset,-1.000000e-01,,   0.067518000000,   0.20400,
Horizontal Units,s,,   0.067520000000,   0.20400,
Horizontal Scale,5.000000e-04,,   0.067522000000,   0.20400,
Pt Fmt,Y,,   0.067524000000,   0.20400,
Yzero,0.000000e+00,,   0.067526000000,   0.20400,
Probe Atten,1.000000e+00,,   0.067528000000,   0.20800,
Model Number,TDS1012B,,   0.067530000000,   0.20600,
Serial Number,C101254,,   0.067532000000,   0.20800,
Firmware Version,FV:v22.11,,   0.067534000000,   0.20800,
,,,0.067536000000,   0.20600,
,,,0.067538000000,   0.20800,
,,,0.067540000000,   0.21000,
,,,0.067542000000,   0.20800,
,,,0.067544000000,   0.21000,
,,,0.067546000000,   0.21000,
,,,0.067548000000,   0.21000,
,,,0.067550000000,   0.21000,
,,,0.067552000000,   0.21200,
,,,0.067554000000,   0.21200,
,,,0.067556000000,   0.21400,
,,,0.067558000000,   0.21200,
,,,0.067560000000,   0.21400,
,,,0.067562000000,   0.21400,
,,,0.067564000000,   0.21200,
,,,0.067566000000,   0.21600,
,,,0.067568000000,   0.21400,
,,,0.067570000000,   0.21400,
,,,0.067572000000,   0.21600,
,,,0.067574000000,   0.21800,
,,,0.067576000000,   0.21800,
,,,0.067578000000,   0.21600,
,,,0.067580000000,   0.21800,
,,,0.067582000000,   0.21800,
,,,0.067584000000,   0.21600,
,,,0.067586000000,   0.21800,
,,,0.067588000000,   0.21800,
,,,0.067590000000,   0.21800,
,,,0.067592000000,   0.22000,
,,,0.067594000000,   0.22000,
,,,0.067596000000,   0.22000,
,,,0.067598000000,   0.22000,
,,,0.067600000000,   0.22000,
,,,0.067602000000,   0.22000,
,,,0.067604000000,   0.22200,
,,,0.067606000000,   0.22000,
,,,0.067608000000,   0.22200,
,,,0.067610000000,   0.22000,
,,,0.067612000000,   0.22200,
,,,0.067614000000,   0.22200,
,,,0.067616000000,   0.22200,
,,,0.067618000000,   0.22200,
,,,0.067620000000,   0.22400,
,,,0.067622000000,   0.22200,
,,,0.067624000000,   0.22200,
,,,0.067626000000,   0.22400,
,,,0.067628000000,   0.22200,
,,,0.067630000000,   0.22400,
,,,0.067632000000,   0.22400,
,,,0.067634000000,   0.22400,
,,,0.067636000000,   0.22400,
,,,0.067638000000,   0.22600,
,,,0.067640000000,   0.22400,
,,,0.067642000000,   0.22400,
,,,0.067644000000,   0.22400,
,,,0.067646000000,   0.22400,
,,,0.067648000000,   0.22600,
,,,0.067650000000,   0.22200,
,,,0.067652000000,   0.22600,
,,,0.067654000000,   0.22600,
,,,0.067656000000,   0.22600,
,,,0.067658000000,   0.22600,
,,,0.067660000000,   0.22400,
,,,0.067662000000,   0.22600,
,,,0.067664000000,   0.22400,
,,,0.067666000000,   0.22600,
,,,0.067668000000,   0.22600,
,,,0.067670000000,   0.22600,
,,,0.067672000000,   0.22600,
,,,0.067674000000,   0.22600,
,,,0.067676000000,   0.22600,
,,,0.067678000000,   0.22600,
,,,0.067680000000,   0.22400,
,,,0.067682000000,   0.22600,
,,,0.067684000000,   0.22600,
,,,0.067686000000,   0.22600,
,,,0.067688000000,   0.22600,
,,,0.067690000000,   0.22600,
,,,0.067692000000,   0.22600,
,,,0.067694000000,   0.22600,
,,,0.067696000000,   0.22600,
,,,0.067698000000,   0.22400,
,,,0.067700000000,   0.22400,
,,,0.067702000000,   0.22600,
,,,0.067704000000,   0.22800,
,,,0.067706000000,   0.22600,
,,,0.067708000000,   0.22600,
,,,0.067710000000,   0.22600,
,,,0.067712000000,   0.22600,
,,,0.067714000000,   0.22600,
,,,0.067716000000,   0.22400,
,,,0.067718000000,   0.22400,
,,,0.067720000000,   0.22600,
,,,0.067722000000,   0.22800,
,,,0.067724000000,   0.22600,
,,,0.067726000000,   0.22600,
,,,0.067728000000,   0.22400,
,,,0.067730000000,   0.22800,
,,,0.067732000000,   0.22800,
,,,0.067734000000,   0.22400,
,,,0.067736000000,   0.22600,
,,,0.067738000000,   0.22600,
,,,0.067740000000,   0.22600,
,,,0.067742000000,   0.22600,
,,,0.067744000000,   0.22600,
,,,0.067746000000,   0.22800,
,,,0.067748000000,   0.22400,
,,,0.067750000000,   0.22600,
,,,0.067752000000,   0.22800,
,,,0.067754000000,   0.22800,
,,,0.067756000000,   0.22600,
,,,0.067758000000,   0.22400,
,,,0.067760000000,   0.22800,
,,,0.067762000000,   0.22800,
,,,0.067764000000,   0.22600,
,,,0.067766000000,   0.22800,
,,,0.067768000000,   0.22600,
,,,0.067770000000,   0.22400,
,,,0.067772000000,   0.22600,
,,,0.067774000000,   0.22600,
,,,0.067776000000,   0.22400,
,,,0.067778000000,   0.22800,
,,,0.067780000000,   0.22600,
,,,0.067782000000,   0.22600,
,,,0.067784000000,   0.22600,
,,,0.067786000000,   0.22800,
,,,0.067788000000,   0.22600,
,,,0.067790000000,   0.22800,
,,,0.067792000000,   0.22800,
,,,0.067794000000,   0.22800,
,,,0.067796000000,   0.22800,
,,,0.067798000000,   0.22600,
,,,0.067800000000,   0.22600,
,,,0.067802000000,   0.22600,
,,,0.067804000000,   0.22600,
,,,0.067806000000,   0.22400,
,,,0.067808000000,   0.22600,
,,,0.067810000000,   0.22600,
,,,0.067812000000,   0.22600,
,,,0.067814000000,   0.22600,
,,,0.067816000000,   0.22600,
,,,0.067818000000,   0.22600,
,,,0.067820000000,   0.22600,
,,,0.067822000000,   0.22800,
,,,0.067824000000,   0.22800,
,,,0.067826000000,   0.22800,
,,,0.067828000000,   0.22600,
,,,0.067830000000,   0.22600,
,,,0.067832000000,   0.22800,
,,,0.067834000000,   0.22600,
,,,0.067836000000,   0.22800,
,,,0.067838000000,   0.22600,
,,,0.067840000000,   0.22600,
,,,0.067842000000,   0.22600,
,,,0.067844000000,   0.22400,
,,,0.067846000000,   0.22600,
,,,0.067848000000,   0.22800,
,,,0.067850000000,   0.22800,
,,,0.067852000000,   0.22800,
,,,0.067854000000,   0.22600,
,,,0.067856000000,   0.22600,
,,,0.067858000000,   0.22600,
,,,0.067860000000,   0.22600,
,,,0.067862000000,   0.22800,
,,,0.067864000000,   0.22600,
,,,0.067866000000,   0.22800,
,,,0.067868000000,   0.22600,
,,,0.067870000000,   0.22600,
,,,0.067872000000,   0.22800,
,,,0.067874000000,   0.22600,
,,,0.067876000000,   0.22600,
,,,0.067878000000,   0.22600,
,,,0.067880000000,   0.22800,
,,,0.067882000000,   0.22800,
,,,0.067884000000,   0.22800,
,,,0.067886000000,   0.22400,
,,,0.067888000000,   0.22600,
,,,0.067890000000,   0.22600,
,,,0.067892000000,   0.22600,
,,,0.067894000000,   0.22800,
,,,0.067896000000,   0.22400,
,,,0.067898000000,   0.22800,
,,,0.067900000000,   0.22600,
,,,0.067902000000,   0.22600,
,,,0.067904000000,   0.22600,
,,,0.067906000000,   0.22400,
,,,0.067908000000,   0.22600,
,,,0.067910000000,   0.22600,
,,,0.067912000000,   0.22600,
,,,0.067914000000,   0.22600,
,,,0.067916000000,   0.22600,
,,,0.067918000000,   0.22600,
,,,0.067920000000,   0.22800,
,,,0.067922000000,   0.22600,
,,,0.067924000000,   0.22800,
,,,0.067926000000,   0.22600,
,,,0.067928000000,   0.22800,
,,,0.067930000000,   0.22600,
,,,0.067932000000,   0.22600,
,,,0.067934000000,   0.22600,
,,,0.067936000000,   0.22800,
,,,0.067938000000,   0.22600,
,,,0.067940000000,   0.22600,
,,,0.067942000000,   0.22800,
,,,0.067944000000,   0.22600,
,,,0.067946000000,   0.22600,
,,,0.067948000000,   0.22600,
,,,0.067950000000,   0.22600,
,,,0.067952000000,   0.22600,
,,,0.067954000000,   0.22600,
,,,0.067956000000,   0.22600,
,,,0.067958000000,   0.22400,
,,,0.067960000000,   0.22600,
,,,0.067962000000,   0.22800,
,,,0.067964000000,   0.22600,
,,,0.067966000000,   0.22600,
,,,0.067968000000,   0.22800,
,,,0.067970000000,   0.22600,
,,,0.067972000000,   0.22800,
,,,0.067974000000,   0.22600,
,,,0.067976000000,   0.22600,
,,,0.067978000000,   0.22400,
,,,0.067980000000,   0.22600,
,,,0.067982000000,   0.22800,
,,,0.067984000000,   0.22600,
,,,0.067986000000,   0.22600,
,,,0.067988000000,   0.22400,
,,,0.067990000000,   0.22600,
,,,0.067992000000,   0.22600,
,,,0.067994000000,   0.22400,
,,,0.067996000000,   0.22600,
,,,0.067998000000,   0.22400,
,,,0.068000000000,   0.22600,
,,,0.068002000000,   0.22400,
,,,0.068004000000,   0.22400,
,,,0.068006000000,   0.22400,
,,,0.068008000000,   0.22400,
,,,0.068010000000,   0.22600,
,,,0.068012000000,   0.22200,
,,,0.068014000000,   0.22400,
,,,0.068016000000,   0.22200,
,,,0.068018000000,   0.22400,
,,,0.068020000000,   0.22400,
,,,0.068022000000,   0.22200,
,,,0.068024000000,   0.22200,
,,,0.068026000000,   0.22200,
,,,0.068028000000,   0.22200,
,,,0.068030000000,   0.22000,
,,,0.068032000000,   0.22000,
,,,0.068034000000,   0.22000,
,,,0.068036000000,   0.22000,
,,,0.068038000000,   0.22000,
,,,0.068040000000,   0.22000,
,,,0.068042000000,   0.21800,
,,,0.068044000000,   0.21800,
,,,0.068046000000,   0.21800,
,,,0.068048000000,   0.21800,
,,,0.068050000000,   0.21800,
,,,0.068052000000,   0.21600,
,,,0.068054000000,   0.21800,
,,,0.068056000000,   0.21800,
,,,0.068058000000,   0.21800,
,,,0.068060000000,   0.21600,
,,,0.068062000000,   0.21600,
,,,0.068064000000,   0.21400,
,,,0.068066000000,   0.21200,
,,,0.068068000000,   0.21400,
,,,0.068070000000,   0.21000,
,,,0.068072000000,   0.21200,
,,,0.068074000000,   0.21000,
,,,0.068076000000,   0.21000,
,,,0.068078000000,   0.21200,
,,,0.068080000000,   0.21000,
,,,0.068082000000,   0.21000,
,,,0.068084000000,   0.21000,
,,,0.068086000000,   0.20800,
,,,0.068088000000,   0.20800,
,,,0.068090000000,   0.20600,
,,,0.068092000000,   0.20600,
,,,0.068094000000,   0.20400,
,,,0.068096000000,   0.20400,
,,,0.068098000000,   0.20200,
,,,0.068100000000,   0.20400,
,,,0.068102000000,   0.20200,
,,,0.068104000000,   0.20000,
,,,0.068106000000,   0.20000,
,,,0.068108000000,   0.20000,
,,,0.068110000000,   0.19800,
,,,0.068112000000,   0.19800,
,,,0.068114000000,   0.20000,
,,,0.068116000000,   0.20000,
,,,0.068118000000,   0.19800,
,,,0.068120000000,   0.19600,
,,,0.068122000000,   0.19600,
,,,0.068124000000,   0.19600,
,,,0.068126000000,   0.19600,
,,,0.068128000000,   0.19400,
,,,0.068130000000,   0.19400,
,,,0.068132000000,   0.19400,
,,,0.068134000000,   0.19000,
,,,0.068136000000,   0.19000,
,,,0.068138000000,   0.19000,
,,,0.068140000000,   0.18800,
,,,0.068142000000,   0.18800,
,,,0.068144000000,   0.18800,
,,,0.068146000000,   0.18600,
,,,0.068148000000,   0.18600,
,,,0.068150000000,   0.18400,
,,,0.068152000000,   0.18600,
,,,0.068154000000,   0.18400,
,,,0.068156000000,   0.18200,
,,,0.068158000000,   0.18000,
,,,0.068160000000,   0.18000,
,,,0.068162000000,   0.18000,
,,,0.068164000000,   0.18000,
,,,0.068166000000,   0.17800,
,,,0.068168000000,   0.17800,
,,,0.068170000000,   0.17800,
,,,0.068172000000,   0.17600,
,,,0.068174000000,   0.17400,
,,,0.068176000000,   0.17600,
,,,0.068178000000,   0.17200,
,,,0.068180000000,   0.17200,
,,,0.068182000000,   0.17000,
,,,0.068184000000,   0.17000,
,,,0.068186000000,   0.17000,
,,,0.068188000000,   0.16800,
,,,0.068190000000,   0.16800,
,,,0.068192000000,   0.16600,
,,,0.068194000000,   0.16600,
,,,0.068196000000,   0.16400,
,,,0.068198000000,   0.16200,
,,,0.068200000000,   0.16200,
,,,0.068202000000,   0.16200,
,,,0.068204000000,   0.16000,
,,,0.068206000000,   0.15800,
,,,0.068208000000,   0.15800,
,,,0.068210000000,   0.15800,
,,,0.068212000000,   0.15600,
,,,0.068214000000,   0.15600,
,,,0.068216000000,   0.15600,
,,,0.068218000000,   0.15400,
,,,0.068220000000,   0.15400,
,,,0.068222000000,   0.15000,
,,,0.068224000000,   0.15000,
,,,0.068226000000,   0.14800,
,,,0.068228000000,   0.14800,
,,,0.068230000000,   0.14600,
,,,0.068232000000,   0.14600,
,,,0.068234000000,   0.14400,
,,,0.068236000000,   0.14400,
,,,0.068238000000,   0.14400,
,,,0.068240000000,   0.14400,
,,,0.068242000000,   0.14200,
,,,0.068244000000,   0.13800,
,,,0.068246000000,   0.13800,
,,,0.068248000000,   0.13600,
,,,0.068250000000,   0.13600,
,,,0.068252000000,   0.13600,
,,,0.068254000000,   0.13400,
,,,0.068256000000,   0.13200,
,,,0.068258000000,   0.13200,
,,,0.068260000000,   0.13000,
,,,0.068262000000,   0.12800,
,,,0.068264000000,   0.12600,
,,,0.068266000000,   0.12600,
,,,0.068268000000,   0.12600,
,,,0.068270000000,   0.12600,
,,,0.068272000000,   0.12400,
,,,0.068274000000,   0.12200,
,,,0.068276000000,   0.12000,
,,,0.068278000000,   0.12000,
,,,0.068280000000,   0.11800,
,,,0.068282000000,   0.11800,
,,,0.068284000000,   0.11600,
,,,0.068286000000,   0.11400,
,,,0.068288000000,   0.11400,
,,,0.068290000000,   0.11200,
,,,0.068292000000,   0.11200,
,,,0.068294000000,   0.11000,
,,,0.068296000000,   0.10800,
,,,0.068298000000,   0.10600,
,,,0.068300000000,   0.10800,
,,,0.068302000000,   0.10600,
,,,0.068304000000,   0.10400,
,,,0.068306000000,   0.10400,
,,,0.068308000000,   0.10200,
,,,0.068310000000,   0.10200,
,,,0.068312000000,   0.09800,
,,,0.068314000000,   0.09800,
,,,0.068316000000,   0.09600,
,,,0.068318000000,   0.09600,
,,,0.068320000000,   0.09600,
,,,0.068322000000,   0.09400,
,,,0.068324000000,   0.09400,
,,,0.068326000000,   0.09200,
,,,0.068328000000,   0.08800,
,,,0.068330000000,   0.09000,
,,,0.068332000000,   0.08800,
,,,0.068334000000,   0.08600,
,,,0.068336000000,   0.08400,
,,,0.068338000000,   0.08600,
,,,0.068340000000,   0.08200,
,,,0.068342000000,   0.08200,
,,,0.068344000000,   0.08200,
,,,0.068346000000,   0.08000,
,,,0.068348000000,   0.07800,
,,,0.068350000000,   0.07600,
,,,0.068352000000,   0.07800,
,,,0.068354000000,   0.07800,
,,,0.068356000000,   0.07400,
,,,0.068358000000,   0.07400,
,,,0.068360000000,   0.07200,
,,,0.068362000000,   0.07200,
,,,0.068364000000,   0.07200,
,,,0.068366000000,   0.07000,
,,,0.068368000000,   0.07000,
,,,0.068370000000,   0.06800,
,,,0.068372000000,   0.06800,
,,,0.068374000000,   0.06600,
,,,0.068376000000,   0.06400,
,,,0.068378000000,   0.06400,
,,,0.068380000000,   0.06200,
,,,0.068382000000,   0.06000,
,,,0.068384000000,   0.06400,
,,,0.068386000000,   0.06000,
,,,0.068388000000,   0.06200,
,,,0.068390000000,   0.05800,
,,,0.068392000000,   0.05800,
,,,0.068394000000,   0.05800,
,,,0.068396000000,   0.05600,
,,,0.068398000000,   0.05600,
,,,0.068400000000,   0.05600,
,,,0.068402000000,   0.05400,
,,,0.068404000000,   0.05400,
,,,0.068406000000,   0.05200,
,,,0.068408000000,   0.05200,
,,,0.068410000000,   0.05200,
,,,0.068412000000,   0.05200,
,,,0.068414000000,   0.05000,
,,,0.068416000000,   0.04800,
,,,0.068418000000,   0.04800,
,,,0.068420000000,   0.04800,
,,,0.068422000000,   0.04600,
,,,0.068424000000,   0.04600,
,,,0.068426000000,   0.04600,
,,,0.068428000000,   0.04400,
,,,0.068430000000,   0.04400,
,,,0.068432000000,   0.04400,
,,,0.068434000000,   0.04200,
,,,0.068436000000,   0.04000,
,,,0.068438000000,   0.04200,
,,,0.068440000000,   0.04000,
,,,0.068442000000,   0.04000,
,,,0.068444000000,   0.03800,
,,,0.068446000000,   0.03800,
,,,0.068448000000,   0.03600,
,,,0.068450000000,   0.03600,
,,,0.068452000000,   0.03600,
,,,0.068454000000,   0.03400,
,,,0.068456000000,   0.03600,
,,,0.068458000000,   0.03600,
,,,0.068460000000,   0.03400,
,,,0.068462000000,   0.03400,
,,,0.068464000000,   0.03200,
,,,0.068466000000,   0.03000,
,,,0.068468000000,   0.03200,
,,,0.068470000000,   0.03200,
,,,0.068472000000,   0.03000,
,,,0.068474000000,   0.02800,
,,,0.068476000000,   0.02800,
,,,0.068478000000,   0.02800,
,,,0.068480000000,   0.02800,
,,,0.068482000000,   0.02800,
,,,0.068484000000,   0.02600,
,,,0.068486000000,   0.02600,
,,,0.068488000000,   0.02400,
,,,0.068490000000,   0.02400,
,,,0.068492000000,   0.02400,
,,,0.068494000000,   0.02400,
,,,0.068496000000,   0.02400,
,,,0.068498000000,   0.02400,
,,,0.068500000000,   0.02200,
,,,0.068502000000,   0.02200,
,,,0.068504000000,   0.02200,
,,,0.068506000000,   0.02000,
,,,0.068508000000,   0.02200,
,,,0.068510000000,   0.01800,
,,,0.068512000000,   0.01800,
,,,0.068514000000,   0.02000,
,,,0.068516000000,   0.01800,
,,,0.068518000000,   0.01800,
,,,0.068520000000,   0.01800,
,,,0.068522000000,   0.01600,
,,,0.068524000000,   0.01600,
,,,0.068526000000,   0.01400,
,,,0.068528000000,   0.01600,
,,,0.068530000000,   0.01600,
,,,0.068532000000,   0.01600,
,,,0.068534000000,   0.01400,
,,,0.068536000000,   0.01200,
,,,0.068538000000,   0.01200,
,,,0.068540000000,   0.01200,
,,,0.068542000000,   0.01200,
,,,0.068544000000,   0.01200,
,,,0.068546000000,   0.01200,
,,,0.068548000000,   0.01000,
,,,0.068550000000,   0.01000,
,,,0.068552000000,   0.01000,
,,,0.068554000000,   0.00800,
,,,0.068556000000,   0.00800,
,,,0.068558000000,   0.01000,
,,,0.068560000000,   0.00800,
,,,0.068562000000,   0.00800,
,,,0.068564000000,   0.00800,
,,,0.068566000000,   0.00800,
,,,0.068568000000,   0.00800,
,,,0.068570000000,   0.00600,
,,,0.068572000000,   0.00600,
,,,0.068574000000,   0.00600,
,,,0.068576000000,   0.00600,
,,,0.068578000000,   0.00600,
,,,0.068580000000,   0.00400,
,,,0.068582000000,   0.00400,
,,,0.068584000000,   0.00800,
,,,0.068586000000,   0.00400,
,,,0.068588000000,   0.00200,
,,,0.068590000000,   0.00200,
,,,0.068592000000,   0.00400,
,,,0.068594000000,   0.00400,
,,,0.068596000000,   0.00400,
,,,0.068598000000,   0.00200,
,,,0.068600000000,   0.00400,
,,,0.068602000000,   0.00200,
,,,0.068604000000,   0.00200,
,,,0.068606000000,   0.00200,
,,,0.068608000000,   0.00200,
,,,0.068610000000,   0.00000,
,,,0.068612000000,   0.00000,
,,,0.068614000000,   0.00000,
,,,0.068616000000,   0.00200,
,,,0.068618000000,   0.00200,
,,,0.068620000000,   0.00200,
,,,0.068622000000,   0.00400,
,,,0.068624000000,   0.00200,
,,,0.068626000000,   0.00000,
,,,0.068628000000,   0.00400,
,,,0.068630000000,   0.00000,
,,,0.068632000000,   0.00200,
,,,0.068634000000,   0.00000,
,,,0.068636000000,   0.00000,
,,,0.068638000000,   0.00000,
,,,0.068640000000,   0.00000,
,,,0.068642000000,   0.00000,
,,,0.068644000000,   0.00200,
,,,0.068646000000,   0.00000,
,,,0.068648000000,   0.00000,
,,,0.068650000000,   0.00000,
,,,0.068652000000,   0.00200,
,,,0.068654000000,   0.00000,
,,,0.068656000000,   0.00200,
,,,0.068658000000,   0.00000,
,,,0.068660000000,   0.00000,
,,,0.068662000000,   0.00000,
,,,0.068664000000,   0.00000,
,,,0.068666000000,   0.00000,
,,,0.068668000000,   0.00000,
,,,0.068670000000,   0.00000,
,,,0.068672000000,   0.00000,
,,,0.068674000000,   0.00000,
,,,0.068676000000,   0.00000,
,,,0.068678000000,   0.00000,
,,,0.068680000000,   0.00000,
,,,0.068682000000,   0.00000,
,,,0.068684000000,   0.00200,
,,,0.068686000000,   0.00200,
,,,0.068688000000,   0.00000,
,,,0.068690000000,   0.00000,
,,,0.068692000000,   0.00000,
,,,0.068694000000,   0.00000,
,,,0.068696000000,   0.00000,
,,,0.068698000000,  -0.00200,
,,,0.068700000000,   0.00000,
,,,0.068702000000,   0.00000,
,,,0.068704000000,   0.00000,
,,,0.068706000000,   0.00000,
,,,0.068708000000,   0.00000,
,,,0.068710000000,   0.00000,
,,,0.068712000000,   0.00000,
,,,0.068714000000,   0.00000,
,,,0.068716000000,   0.00000,
,,,0.068718000000,   0.00000,
,,,0.068720000000,   0.00000,
,,,0.068722000000,   0.00000,
,,,0.068724000000,   0.00000,
,,,0.068726000000,   0.00000,
,,,0.068728000000,   0.00000,
,,,0.068730000000,   0.00000,
,,,0.068732000000,   0.00000,
,,,0.068734000000,   0.00000,
,,,0.068736000000,  -0.00200,
,,,0.068738000000,  -0.00200,
,,,0.068740000000,   0.00000,
,,,0.068742000000,  -0.00200,
,,,0.068744000000,   0.00200,
,,,0.068746000000,   0.00000,
,,,0.068748000000,   0.00000,
,,,0.068750000000,   0.00000,
,,,0.068752000000,   0.00000,
,,,0.068754000000,   0.00000,
,,,0.068756000000,   0.00000,
,,,0.068758000000,   0.00000,
,,,0.068760000000,   0.00000,
,,,0.068762000000,   0.00000,
,,,0.068764000000,   0.00000,
,,,0.068766000000,   0.00000,
,,,0.068768000000,   0.00000,
,,,0.068770000000,   0.00000,
,,,0.068772000000,   0.00000,
,,,0.068774000000,   0.00000,
,,,0.068776000000,   0.00000,
,,,0.068778000000,   0.00000,
,,,0.068780000000,   0.00000,
,,,0.068782000000,   0.00000,
,,,0.068784000000,   0.00000,
,,,0.068786000000,   0.00000,
,,,0.068788000000,   0.00000,
,,,0.068790000000,   0.00000,
,,,0.068792000000,   0.00000,
,,,0.068794000000,   0.00000,
,,,0.068796000000,  -0.00200,
,,,0.068798000000,   0.00000,
,,,0.068800000000,   0.00000,
,,,0.068802000000,   0.00000,
,,,0.068804000000,   0.00000,
,,,0.068806000000,   0.00000,
